Epitope Position Counter

Position	No of Epitopes at Position

key: 1 value: 2
key: 2 value: 2
key: 3 value: 2
key: 4 value: 2
key: 5 value: 2
key: 6 value: 4
key: 7 value: 5
key: 8 value: 5
key: 9 value: 5
key: 10 value: 5
key: 11 value: 6
key: 12 value: 6
key: 13 value: 7
key: 14 value: 7
key: 15 value: 7
key: 16 value: 7
key: 17 value: 7
key: 18 value: 6
key: 19 value: 7
key: 20 value: 6
key: 21 value: 6
key: 22 value: 6
key: 23 value: 6
key: 24 value: 5
key: 25 value: 6
key: 26 value: 6
key: 27 value: 6
key: 28 value: 6
key: 29 value: 6
key: 30 value: 6
key: 31 value: 8
key: 32 value: 8
key: 33 value: 8
key: 34 value: 8
key: 35 value: 8
key: 36 value: 7
key: 37 value: 8
key: 38 value: 8
key: 39 value: 6
key: 40 value: 6
key: 41 value: 6
key: 42 value: 5
key: 43 value: 6
key: 44 value: 6
key: 45 value: 6
key: 46 value: 6
key: 47 value: 6
key: 48 value: 5
key: 49 value: 6
key: 50 value: 6
key: 51 value: 6
key: 52 value: 6
key: 53 value: 6
key: 54 value: 5
key: 55 value: 6
key: 56 value: 6
key: 57 value: 6
key: 58 value: 6
key: 59 value: 6
key: 60 value: 5
key: 61 value: 6
key: 62 value: 6
key: 63 value: 6
key: 64 value: 6
key: 65 value: 5
key: 66 value: 4
key: 67 value: 5
key: 68 value: 5
key: 69 value: 6
key: 70 value: 6
key: 71 value: 7
key: 72 value: 6
key: 73 value: 7
key: 74 value: 7
key: 75 value: 7
key: 76 value: 7
key: 77 value: 6
key: 78 value: 5
key: 79 value: 6
key: 80 value: 6
key: 81 value: 6
key: 82 value: 6
key: 83 value: 6
key: 84 value: 5
key: 85 value: 6
key: 86 value: 6
key: 87 value: 6
key: 88 value: 7
key: 89 value: 7
key: 90 value: 7
key: 91 value: 8
key: 92 value: 8
key: 93 value: 8
key: 94 value: 8
key: 95 value: 8
key: 96 value: 7
key: 97 value: 9
key: 98 value: 7
key: 99 value: 7
key: 100 value: 7
key: 101 value: 7
key: 102 value: 7
key: 103 value: 8
key: 104 value: 8
key: 105 value: 9
key: 106 value: 9
key: 107 value: 8
key: 108 value: 7
key: 109 value: 8
key: 110 value: 7
key: 111 value: 7
key: 112 value: 7
key: 113 value: 7
key: 114 value: 6
key: 115 value: 6
key: 116 value: 5
key: 117 value: 5
key: 118 value: 5
key: 119 value: 5
key: 120 value: 4
key: 121 value: 3
