Epitope Position Counter

Position	No of Epitopes at Position

key: 1 value: 6
key: 2 value: 6
key: 3 value: 7
key: 4 value: 8
key: 5 value: 9
key: 6 value: 12
key: 7 value: 15
key: 8 value: 16
key: 9 value: 17
key: 10 value: 17
key: 11 value: 19
key: 12 value: 18
key: 13 value: 20
key: 14 value: 19
key: 15 value: 19
key: 16 value: 20
key: 17 value: 22
key: 18 value: 20
key: 19 value: 22
key: 20 value: 22
key: 21 value: 21
key: 22 value: 21
key: 23 value: 24
key: 24 value: 21
key: 25 value: 25
key: 26 value: 24
key: 27 value: 24
key: 28 value: 25
key: 29 value: 26
key: 30 value: 25
key: 31 value: 27
key: 32 value: 27
key: 33 value: 28
key: 34 value: 28
key: 35 value: 28
key: 36 value: 25
key: 37 value: 25
key: 38 value: 25
key: 39 value: 26
key: 40 value: 25
key: 41 value: 26
key: 42 value: 24
key: 43 value: 26
key: 44 value: 26
key: 45 value: 25
key: 46 value: 24
key: 47 value: 24
key: 48 value: 27
key: 49 value: 28
key: 50 value: 29
key: 51 value: 29
key: 52 value: 27
key: 53 value: 24
key: 54 value: 23
key: 55 value: 24
key: 56 value: 25
key: 57 value: 27
key: 58 value: 25
key: 59 value: 27
key: 60 value: 27
key: 61 value: 25
key: 62 value: 25
key: 63 value: 27
key: 64 value: 28
key: 65 value: 31
key: 66 value: 32
key: 67 value: 31
key: 68 value: 29
key: 69 value: 28
key: 70 value: 27
key: 71 value: 28
key: 72 value: 29
key: 73 value: 30
key: 74 value: 29
key: 75 value: 27
key: 76 value: 24
key: 77 value: 24
key: 78 value: 26
key: 79 value: 28
key: 80 value: 28
key: 81 value: 29
key: 82 value: 27
key: 83 value: 28
key: 84 value: 29
key: 85 value: 26
key: 86 value: 26
key: 87 value: 26
key: 88 value: 24
key: 89 value: 24
key: 90 value: 25
key: 91 value: 27
key: 92 value: 26
key: 93 value: 24
key: 94 value: 23
key: 95 value: 24
key: 96 value: 25
key: 97 value: 27
key: 98 value: 27
key: 99 value: 29
key: 100 value: 27
key: 101 value: 27
key: 102 value: 28
key: 103 value: 29
key: 104 value: 29
key: 105 value: 30
key: 106 value: 29
key: 107 value: 31
key: 108 value: 31
key: 109 value: 28
key: 110 value: 28
key: 111 value: 28
key: 112 value: 26
key: 113 value: 31
key: 114 value: 32
key: 115 value: 32
key: 116 value: 30
key: 117 value: 28
key: 118 value: 27
key: 119 value: 26
key: 120 value: 29
key: 121 value: 30
key: 122 value: 30
key: 123 value: 29
key: 124 value: 27
key: 125 value: 25
key: 126 value: 28
key: 127 value: 29
key: 128 value: 31
key: 129 value: 34
key: 130 value: 33
key: 131 value: 32
key: 132 value: 33
key: 133 value: 30
key: 134 value: 32
key: 135 value: 31
key: 136 value: 30
key: 137 value: 31
key: 138 value: 32
key: 139 value: 33
key: 140 value: 30
key: 141 value: 30
key: 142 value: 27
key: 143 value: 29
key: 144 value: 30
key: 145 value: 30
key: 146 value: 29
key: 147 value: 29
key: 148 value: 31
key: 149 value: 32
key: 150 value: 32
key: 151 value: 32
key: 152 value: 31
key: 153 value: 32
key: 154 value: 32
key: 155 value: 31
key: 156 value: 31
key: 157 value: 29
key: 158 value: 31
key: 159 value: 27
key: 160 value: 27
key: 161 value: 29
key: 162 value: 31
key: 163 value: 31
key: 164 value: 28
key: 165 value: 27
key: 166 value: 24
key: 167 value: 24
key: 168 value: 25
key: 169 value: 26
key: 170 value: 23
key: 171 value: 25
key: 172 value: 24
key: 173 value: 23
key: 174 value: 25
key: 175 value: 26
key: 176 value: 25
key: 177 value: 30
key: 178 value: 29
key: 179 value: 28
key: 180 value: 27
key: 181 value: 27
key: 182 value: 27
key: 183 value: 30
key: 184 value: 29
key: 185 value: 30
key: 186 value: 33
key: 187 value: 32
key: 188 value: 30
key: 189 value: 27
key: 190 value: 27
key: 191 value: 26
key: 192 value: 26
key: 193 value: 29
key: 194 value: 28
key: 195 value: 30
key: 196 value: 29
key: 197 value: 29
key: 198 value: 30
key: 199 value: 30
key: 200 value: 28
key: 201 value: 30
key: 202 value: 31
key: 203 value: 31
key: 204 value: 34
key: 205 value: 35
key: 206 value: 35
key: 207 value: 36
key: 208 value: 36
key: 209 value: 37
key: 210 value: 37
key: 211 value: 38
key: 212 value: 36
key: 213 value: 35
key: 214 value: 35
key: 215 value: 32
key: 216 value: 30
key: 217 value: 30
key: 218 value: 31
key: 219 value: 30
key: 220 value: 26
key: 221 value: 27
key: 222 value: 25
key: 223 value: 25
key: 224 value: 24
key: 225 value: 27
key: 226 value: 26
key: 227 value: 27
key: 228 value: 25
key: 229 value: 23
key: 230 value: 21
key: 231 value: 24
key: 232 value: 23
key: 233 value: 26
key: 234 value: 25
key: 235 value: 25
key: 236 value: 23
key: 237 value: 24
key: 238 value: 23
key: 239 value: 24
key: 240 value: 24
key: 241 value: 27
key: 242 value: 26
key: 243 value: 27
key: 244 value: 28
key: 245 value: 28
key: 246 value: 29
key: 247 value: 30
key: 248 value: 29
key: 249 value: 33
key: 250 value: 33
key: 251 value: 30
key: 252 value: 29
key: 253 value: 30
key: 254 value: 29
key: 255 value: 32
key: 256 value: 33
key: 257 value: 34
key: 258 value: 35
key: 259 value: 35
key: 260 value: 33
key: 261 value: 32
key: 262 value: 34
key: 263 value: 34
key: 264 value: 33
key: 265 value: 35
key: 266 value: 33
key: 267 value: 33
key: 268 value: 34
key: 269 value: 34
key: 270 value: 33
key: 271 value: 31
key: 272 value: 30
key: 273 value: 31
key: 274 value: 33
key: 275 value: 33
key: 276 value: 33
key: 277 value: 31
key: 278 value: 27
key: 279 value: 28
key: 280 value: 27
key: 281 value: 29
key: 282 value: 27
key: 283 value: 27
key: 284 value: 25
key: 285 value: 23
key: 286 value: 23
key: 287 value: 24
key: 288 value: 25
key: 289 value: 25
key: 290 value: 23
key: 291 value: 24
key: 292 value: 25
key: 293 value: 23
key: 294 value: 23
key: 295 value: 24
key: 296 value: 22
key: 297 value: 24
key: 298 value: 25
key: 299 value: 23
key: 300 value: 23
key: 301 value: 22
key: 302 value: 21
key: 303 value: 23
key: 304 value: 26
key: 305 value: 30
key: 306 value: 34
key: 307 value: 34
key: 308 value: 37
key: 309 value: 38
key: 310 value: 39
key: 311 value: 39
key: 312 value: 39
key: 313 value: 38
key: 314 value: 36
key: 315 value: 36
key: 316 value: 37
key: 317 value: 35
key: 318 value: 29
key: 319 value: 30
key: 320 value: 26
key: 321 value: 28
key: 322 value: 31
key: 323 value: 33
key: 324 value: 34
key: 325 value: 33
key: 326 value: 32
key: 327 value: 31
key: 328 value: 33
key: 329 value: 34
key: 330 value: 34
key: 331 value: 34
key: 332 value: 34
key: 333 value: 31
key: 334 value: 30
key: 335 value: 28
key: 336 value: 29
key: 337 value: 31
key: 338 value: 32
key: 339 value: 32
key: 340 value: 32
key: 341 value: 28
key: 342 value: 27
key: 343 value: 26
key: 344 value: 29
key: 345 value: 28
key: 346 value: 29
key: 347 value: 27
key: 348 value: 26
key: 349 value: 24
key: 350 value: 24
key: 351 value: 24
key: 352 value: 25
key: 353 value: 26
key: 354 value: 26
key: 355 value: 25
key: 356 value: 25
key: 357 value: 25
key: 358 value: 27
key: 359 value: 27
key: 360 value: 27
key: 361 value: 26
key: 362 value: 25
key: 363 value: 24
key: 364 value: 23
key: 365 value: 23
key: 366 value: 23
key: 367 value: 22
key: 368 value: 22
key: 369 value: 23
key: 370 value: 22
key: 371 value: 22
key: 372 value: 23
key: 373 value: 21
key: 374 value: 21
key: 375 value: 22
key: 376 value: 21
key: 377 value: 21
key: 378 value: 21
key: 379 value: 21
key: 380 value: 22
key: 381 value: 21
key: 382 value: 21
key: 383 value: 21
key: 384 value: 22
key: 385 value: 22
key: 386 value: 24
key: 387 value: 25
key: 388 value: 26
key: 389 value: 26
key: 390 value: 26
key: 391 value: 26
key: 392 value: 27
key: 393 value: 30
key: 394 value: 29
key: 395 value: 29
key: 396 value: 29
key: 397 value: 28
key: 398 value: 29
key: 399 value: 28
key: 400 value: 29
key: 401 value: 30
key: 402 value: 32
key: 403 value: 32
key: 404 value: 34
key: 405 value: 34
key: 406 value: 33
key: 407 value: 35
key: 408 value: 34
key: 409 value: 34
key: 410 value: 34
key: 411 value: 32
key: 412 value: 33
key: 413 value: 28
key: 414 value: 27
key: 415 value: 27
key: 416 value: 28
key: 417 value: 30
key: 418 value: 29
key: 419 value: 27
key: 420 value: 25
key: 421 value: 25
key: 422 value: 26
key: 423 value: 25
key: 424 value: 25
key: 425 value: 25
key: 426 value: 24
key: 427 value: 24
key: 428 value: 24
key: 429 value: 26
key: 430 value: 26
key: 431 value: 26
key: 432 value: 25
key: 433 value: 25
key: 434 value: 25
key: 435 value: 29
key: 436 value: 29
key: 437 value: 29
key: 438 value: 30
key: 439 value: 30
key: 440 value: 31
key: 441 value: 34
key: 442 value: 36
key: 443 value: 36
key: 444 value: 34
key: 445 value: 34
key: 446 value: 33
key: 447 value: 34
key: 448 value: 31
key: 449 value: 33
key: 450 value: 32
key: 451 value: 32
key: 452 value: 31
key: 453 value: 28
key: 454 value: 29
key: 455 value: 27
key: 456 value: 27
key: 457 value: 29
key: 458 value: 28
key: 459 value: 30
key: 460 value: 29
key: 461 value: 27
key: 462 value: 27
key: 463 value: 26
key: 464 value: 26
key: 465 value: 28
key: 466 value: 28
key: 467 value: 25
key: 468 value: 23
key: 469 value: 23
key: 470 value: 24
key: 471 value: 24
key: 472 value: 24
key: 473 value: 24
key: 474 value: 22
key: 475 value: 24
key: 476 value: 24
key: 477 value: 24
key: 478 value: 24
key: 479 value: 25
key: 480 value: 23
key: 481 value: 24
key: 482 value: 25
key: 483 value: 25
key: 484 value: 27
key: 485 value: 26
key: 486 value: 25
key: 487 value: 25
key: 488 value: 25
key: 489 value: 25
key: 490 value: 25
key: 491 value: 25
key: 492 value: 25
key: 493 value: 24
key: 494 value: 25
key: 495 value: 24
key: 496 value: 24
key: 497 value: 24
key: 498 value: 24
key: 499 value: 25
key: 500 value: 25
key: 501 value: 24
key: 502 value: 23
key: 503 value: 23
key: 504 value: 23
key: 505 value: 25
key: 506 value: 25
key: 507 value: 24
key: 508 value: 24
key: 509 value: 21
key: 510 value: 21
key: 511 value: 21
key: 512 value: 23
key: 513 value: 25
key: 514 value: 24
key: 515 value: 23
key: 516 value: 23
key: 517 value: 21
key: 518 value: 23
key: 519 value: 24
key: 520 value: 24
key: 521 value: 25
key: 522 value: 26
key: 523 value: 25
key: 524 value: 26
key: 525 value: 25
key: 526 value: 28
key: 527 value: 29
key: 528 value: 28
key: 529 value: 29
key: 530 value: 30
key: 531 value: 31
key: 532 value: 31
key: 533 value: 31
key: 534 value: 32
key: 535 value: 30
key: 536 value: 30
key: 537 value: 29
key: 538 value: 26
key: 539 value: 26
key: 540 value: 26
key: 541 value: 25
key: 542 value: 25
key: 543 value: 25
key: 544 value: 22
key: 545 value: 25
key: 546 value: 25
key: 547 value: 25
key: 548 value: 26
key: 549 value: 25
key: 550 value: 24
key: 551 value: 22
key: 552 value: 22
key: 553 value: 21
key: 554 value: 22
key: 555 value: 19
key: 556 value: 19
key: 557 value: 18
key: 558 value: 17
key: 559 value: 16
key: 560 value: 16
key: 561 value: 12
key: 562 value: 12
key: 563 value: 11
key: 564 value: 10
key: 565 value: 6
key: 566 value: 3
key: 567 value: 1
key: 568 value: 1
