132	336	350	NP	AAFEDLRVLSFIKGT
133	336	349	NP	AAFEDLRVLSFIRG
133	336	349	NP	AAFEDLRVLSFIRG
133	336	349	NP	AAFEDLRVLSFIRG
142	178	186	NP	AAGAAVKGV
492	181	195	NP	AAVKGVGTMVMELVR
901	251	265	NP	AEFEDLTFLARSALI
984	251	259	NP	AEIEDLIFL
984	251	259	NP	AEIEDLIFL
984	251	259	NP	AEIEDLIFL
984	251	259	NP	AEIEDLIFL
984	251	259	NP	AEIEDLIFL
985	251	259	NP	AEIEDLIFS
985	251	259	NP	AEIEDLIFS
985	251	259	NP	AEIEDLIFS
1611	131	145	NP	AGLTHMMIWHSNLND
1789	271	285	NP	AHKSCLPACVYGPAV
3078	373	381	NP	AMDSNTLEL
4254	260	273	NP	ARSALILRGSVAHK
4254	260	273	NP	ARSALILRGSVAHK
4254	260	273	NP	ARSALILRGSVAHK
4254	260	273	NP	ARSALILRGSVAHK
4255	260	283	NP	ARSALILRGSVAHKSCLPACVYGP
4255	260	283	NP	ARSALILRGSVAHKSCLPACVYGP
4255	260	283	NP	ARSALILRGSVAHKSCLPACVYGP
4255	260	283	NP	ARSALILRGSVAHKSCLPACVYGP
4255	260	283	NP	ARSALILRGSVAHKSCLPACVYGP
4255	260	283	NP	ARSALILRGSVAHKSCLPACVYGP
4255	260	283	NP	ARSALILRGSVAHKSCLPACVYGP
4255	260	283	NP	ARSALILRGSVAHKSCLPACVYGP
4255	260	283	NP	ARSALILRGSVAHKSCLPACVYGP
4255	260	283	NP	ARSALILRGSVAHKSCLPACVYGP
4255	260	283	NP	ARSALILRGSVAHKSCLPACVYGP
4309	401	415	NP	ASAGQISIQPTFSVQ
4310	401	420	NP	ASAGQISIQPTFSVQRNLPF
4311	401	419	NP	ASAGQISVQPAFSVQRNLP
4311	401	419	NP	ASAGQISVQPAFSVQRNLP
4311	401	419	NP	ASAGQISVQPAFSVQRNLP
4311	401	419	NP	ASAGQISVQPAFSVQRNLP
4311	401	419	NP	ASAGQISVQPAFSVQRNLP
4311	401	419	NP	ASAGQISVQPAFSVQRNLP
4311	401	419	NP	ASAGQISVQPAFSVQRNLP
4312	401	420	NP	ASAGQISVQPTFSVQRNLPF
4312	401	420	NP	ASAGQISVQPTFSVQRNLPF
4443	286	300	NP	ASGYDFEREGYSLVG
4578	366	374	NP	ASNENMDAM
4578	366	374	NP	ASNENMDAM
4578	366	374	NP	ASNENMDAM
4578	366	374	NP	ASNENMDAM
4578	366	374	NP	ASNENMDAM
4578	366	374	NP	ASNENMDAM
4578	366	374	NP	ASNENMDAM
4578	366	374	NP	ASNENMDAM
4578	366	374	NP	ASNENMDAM
4578	366	374	NP	ASNENMDAM
4578	366	374	NP	ASNENMDAM
4578	366	374	NP	ASNENMDAM
4578	366	374	NP	ASNENMDAM
4578	366	374	NP	ASNENMDAM
4578	366	374	NP	ASNENMDAM
4578	366	374	NP	ASNENMDAM
4578	366	374	NP	ASNENMDAM
4578	366	374	NP	ASNENMDAM
4578	366	374	NP	ASNENMDAM
4578	366	374	NP	ASNENMDAM
4578	366	374	NP	ASNENMDAM
4578	366	374	NP	ASNENMDAM
4578	366	374	NP	ASNENMDAM
4578	366	374	NP	ASNENMDAM
4578	366	374	NP	ASNENMDAM
4578	366	374	NP	ASNENMDAM
4578	366	374	NP	ASNENMDAM
4578	366	374	NP	ASNENMDAM
4578	366	374	NP	ASNENMDAM
4578	366	374	NP	ASNENMDAM
4578	366	374	NP	ASNENMDAM
4578	366	374	NP	ASNENMDAM
4578	366	374	NP	ASNENMDAM
4578	366	374	NP	ASNENMDAM
4578	366	374	NP	ASNENMDAM
4578	366	374	NP	ASNENMDAM
4578	366	374	NP	ASNENMDAM
4578	366	374	NP	ASNENMDAM
4578	366	374	NP	ASNENMDAM
4578	366	374	NP	ASNENMDAM
4578	366	374	NP	ASNENMDAM
4578	366	374	NP	ASNENMDAM
4578	366	374	NP	ASNENMDAM
4578	366	374	NP	ASNENMDAM
4578	366	374	NP	ASNENMDAM
4578	366	374	NP	ASNENMDAM
4578	366	374	NP	ASNENMDAM
4578	366	374	NP	ASNENMDAM
4578	366	374	NP	ASNENMDAM
4578	366	374	NP	ASNENMDAM
4578	366	374	NP	ASNENMDAM
4578	366	374	NP	ASNENMDAM
4578	366	374	NP	ASNENMDAM
4578	366	374	NP	ASNENMDAM
4578	366	374	NP	ASNENMDAM
4578	366	374	NP	ASNENMDAM
4578	366	374	NP	ASNENMDAM
4579	366	379	NP	ASNENMDAMESSTL
4579	366	379	NP	ASNENMDAMESSTL
4579	366	379	NP	ASNENMDAMESSTL
4579	366	379	NP	ASNENMDAMESSTL
4579	366	379	NP	ASNENMDAMESSTL
4580	366	374	NP	ASNENMDTM
4580	366	374	NP	ASNENMDTM
4580	366	374	NP	ASNENMDTM
4580	366	374	NP	ASNENMDTM
4580	366	374	NP	ASNENMDTM
4602	366	374	NP	ASNENMETM
4602	366	374	NP	ASNENMETM
4602	366	374	NP	ASNENMETM
4602	366	374	NP	ASNENMETM
4602	366	374	NP	ASNENMETM
4602	366	374	NP	ASNENMETM
4602	366	374	NP	ASNENMETM
4602	366	374	NP	ASNENMETM
4602	366	374	NP	ASNENMETM
4602	366	374	NP	ASNENMETM
4602	366	374	NP	ASNENMETM
4602	366	374	NP	ASNENMETM
4602	366	374	NP	ASNENMETM
4602	366	374	NP	ASNENMETM
4602	366	374	NP	ASNENMETM
4602	366	374	NP	ASNENMETM
4602	366	374	NP	ASNENMETM
4602	366	374	NP	ASNENMETM
4602	366	374	NP	ASNENMETM
4602	366	374	NP	ASNENMETM
4602	366	374	NP	ASNENMETM
4602	366	374	NP	ASNENMETM
4602	366	374	NP	ASNENMETM
4602	366	374	NP	ASNENMETM
4602	366	374	NP	ASNENMETM
4602	366	374	NP	ASNENMETM
4602	366	374	NP	ASNENMETM
4602	366	374	NP	ASNENMETM
4602	366	374	NP	ASNENMETM
4602	366	374	NP	ASNENMETM
4602	366	374	NP	ASNENMETM
4602	366	374	NP	ASNENMETM
4602	366	374	NP	ASNENMETM
4602	366	374	NP	ASNENMETM
4602	366	374	NP	ASNENMETM
4602	366	374	NP	ASNENMETM
4602	366	374	NP	ASNENMETM
4602	366	374	NP	ASNENMETM
4602	366	374	NP	ASNENMETM
4602	366	374	NP	ASNENMETM
4602	366	374	NP	ASNENMETM
4602	366	374	NP	ASNENMETM
4602	366	374	NP	ASNENMETM
4602	366	374	NP	ASNENMETM
4602	366	374	NP	ASNENMETM
4602	366	374	NP	ASNENMETM
4602	366	374	NP	ASNENMETM
4602	366	374	NP	ASNENMETM
4602	366	374	NP	ASNENMETM
4602	366	374	NP	ASNENMETM
4602	366	374	NP	ASNENMETM
4602	366	374	NP	ASNENMETM
4602	366	374	NP	ASNENMETM
4602	366	374	NP	ASNENMETM
4602	366	374	NP	ASNENMETM
4602	366	374	NP	ASNENMETM
4602	366	374	NP	ASNENMETM
4602	366	374	NP	ASNENMETM
4602	366	374	NP	ASNENMETM
4602	366	374	NP	ASNENMETM
4602	366	374	NP	ASNENMETM
4602	366	374	NP	ASNENMETM
4602	366	374	NP	ASNENMETM
4602	366	374	NP	ASNENMETM
4602	366	374	NP	ASNENMETM
4602	366	374	NP	ASNENMETM
4602	366	374	NP	ASNENMETM
4602	366	374	NP	ASNENMETM
4602	366	374	NP	ASNENMETM
4602	366	374	NP	ASNENMETM
4602	366	374	NP	ASNENMETM
4602	366	374	NP	ASNENMETM
4602	366	374	NP	ASNENMETM
4602	366	374	NP	ASNENMETM
4602	366	374	NP	ASNENMETM
4602	366	374	NP	ASNENMETM
4602	366	374	NP	ASNENMETM
4602	366	374	NP	ASNENMETM
4602	366	374	NP	ASNENMETM
4602	366	374	NP	ASNENMETM
4602	366	374	NP	ASNENMETM
4602	366	374	NP	ASNENMETM
4602	366	374	NP	ASNENMETM
4602	366	374	NP	ASNENMETM
4602	366	374	NP	ASNENMETM
4602	366	374	NP	ASNENMETM
4602	366	374	NP	ASNENMETM
4602	366	374	NP	ASNENMETM
4602	366	374	NP	ASNENMETM
4602	366	374	NP	ASNENMETM
4602	366	374	NP	ASNENMETM
4602	366	374	NP	ASNENMETM
4602	366	374	NP	ASNENMETM
4602	366	374	NP	ASNENMETM
4602	366	374	NP	ASNENMETM
4602	366	374	NP	ASNENMETM
4602	366	374	NP	ASNENMETM
4602	366	374	NP	ASNENMETM
4602	366	374	NP	ASNENMETM
4602	366	374	NP	ASNENMETM
4602	366	374	NP	ASNENMETM
4602	366	374	NP	ASNENMETM
4602	366	374	NP	ASNENMETM
4602	366	374	NP	ASNENMETM
4602	366	374	NP	ASNENMETM
4602	366	374	NP	ASNENMETM
4602	366	374	NP	ASNENMETM
4602	366	374	NP	ASNENMETM
4602	366	374	NP	ASNENMETM
4602	366	374	NP	ASNENMETM
4602	366	374	NP	ASNENMETM
4602	366	374	NP	ASNENMETM
4602	366	374	NP	ASNENMETM
4602	366	374	NP	ASNENMETM
4602	366	374	NP	ASNENMETM
4602	366	374	NP	ASNENMETM
4602	366	374	NP	ASNENMETM
4602	366	374	NP	ASNENMETM
4602	366	374	NP	ASNENMETM
4602	366	374	NP	ASNENMETM
4602	366	374	NP	ASNENMETM
4602	366	374	NP	ASNENMETM
4602	366	374	NP	ASNENMETM
4602	366	374	NP	ASNENMETM
4602	366	374	NP	ASNENMETM
4602	366	374	NP	ASNENMETM
4602	366	374	NP	ASNENMETM
4602	366	374	NP	ASNENMETM
4602	366	374	NP	ASNENMETM
4602	366	374	NP	ASNENMETM
4602	366	374	NP	ASNENMETM
4602	366	374	NP	ASNENMETM
4602	366	374	NP	ASNENMETM
4602	366	374	NP	ASNENMETM
4602	366	374	NP	ASNENMETM
4602	366	374	NP	ASNENMETM
4602	366	374	NP	ASNENMETM
4602	366	374	NP	ASNENMETM
4602	366	374	NP	ASNENMETM
4604	366	380	NP	ASNENMETMESSTLE
4605	366	374	NP	ASNENMEVM
4605	366	374	NP	ASNENMEVM
4605	366	374	NP	ASNENMEVM
4605	366	374	NP	ASNENMEVM
4605	366	374	NP	ASNENMEVM
4697	2	24	NP	ASQGTKRSYEQMETDGERQNATE
4697	2	24	NP	ASQGTKRSYEQMETDGERQNATE
4697	2	24	NP	ASQGTKRSYEQMETDGERQNATE
4940	22	31	NP	ATEIRASVGK
4940	22	31	NP	ATEIRASVGK
5230	146	154	NP	ATYQRTRAL
5231	146	160	NP	ATYQRTRALVRTGMD
5402	182	205	NP	AVKGVGTMVMELIRMIKRGINDRN
5402	182	205	NP	AVKGVGTMVMELIRMIKRGINDRN
5402	182	205	NP	AVKGVGTMVMELIRMIKRGINDRN
5402	182	205	NP	AVKGVGTMVMELIRMIKRGINDRN
5402	182	205	NP	AVKGVGTMVMELIRMIKRGINDRN
5402	182	205	NP	AVKGVGTMVMELIRMIKRGINDRN
5402	182	205	NP	AVKGVGTMVMELIRMIKRGINDRN
5756	218	226	NP	AYERMCNIL
5756	218	226	NP	AYERMCNIL
5756	218	226	NP	AYERMCNIL
5757	218	226	NP	AYERMCNIL
5757	218	226	NP	AYERMCNIL
5757	218	226	NP	AYERMCNIL
5757	218	226	NP	AYERMCNIL
5757	218	226	NP	AYERMCNIL
5757	218	226	NP	AYERMCNIL
5757	218	226	NP	AYERMCNIL
5757	218	226	NP	AYERMCNIL
5757	218	226	NP	AYERMCNIL
5757	218	226	NP	AYERMCNIL
5757	218	226	NP	AYERMCNIL
5757	218	226	NP	AYERMCNIL
5758	218	229	NP	AYERMCNILKGK
5758	218	229	NP	AYERMCNILKGK
5758	218	229	NP	AYERMCNILKGK
5758	218	229	NP	AYERMCNILKGK
5758	218	229	NP	AYERMCNILKGK
5758	218	229	NP	AYERMCNILKGK
6615	275	283	NP	CLPACVYGL
7135	44	52	NP	CTELKLSDH
7136	44	52	NP	CTELKLSDY
7136	44	52	NP	CTELKLSDY
7136	44	52	NP	CTELKLSDY
7136	44	52	NP	CTELKLSDY
7136	44	52	NP	CTELKLSDY
7136	44	52	NP	CTELKLSDY
7136	44	52	NP	CTELKLSDY
7136	44	52	NP	CTELKLSDY
7136	44	52	NP	CTELKLSDY
7136	44	52	NP	CTELKLSDY
7136	44	52	NP	CTELKLSDY
7136	44	52	NP	CTELKLSDY
7136	44	52	NP	CTELKLSDY
7136	44	52	NP	CTELKLSDY
7136	44	52	NP	CTELKLSDY
7136	44	52	NP	CTELKLSDY
7136	44	52	NP	CTELKLSDY
7136	44	52	NP	CTELKLSDY
7136	44	52	NP	CTELKLSDY
7136	44	52	NP	CTELKLSDY
7136	44	52	NP	CTELKLSDY
7136	44	52	NP	CTELKLSDY
7136	44	52	NP	CTELKLSDY
7137	44	52	NP	CTELKLTDQ
7138	44	52	NP	CTELKLTDY
7655	145	164	NP	DATYQRTRALVRTGMDPRMC
7746	127	141	NP	DDATAGLTHMMIWHS
7746	127	141	NP	DDATAGLTHMMIWHS
7746	127	141	NP	DDATAGLTHMMIWHS
7746	127	141	NP	DDATAGLTHMMIWHS
7746	127	141	NP	DDATAGLTHMMIWHS
7746	127	141	NP	DDATAGLTHMMIWHS
7746	127	141	NP	DDATAGLTHMMIWHS
8380	16	30	NP	DGERQNATEIRASVG
9123	255	264	NP	DLIFLARSAL
9124	255	275	NP	DLIFLARSALILRGSVAHKSC
9403	439	453	NP	DMRTEIIRMMESARP
9745	160	173	NP	DPRMCSLMQGSTLP
9745	160	173	NP	DPRMCSLMQGSTLP
9745	160	173	NP	DPRMCSLMQGSTLP
10059	421	435	NP	DRTTIMAAFNGNTEG
10873	51	65	NP	DYEGRLIQNSLTIER
10874	51	70	NP	DYEGRLIQNSLTIERMVLSA
11392	254	262	NP	EDLTFLARS
11392	254	262	NP	EDLTFLARS
11392	254	262	NP	EDLTFLARS
11392	254	262	NP	EDLTFLARS
11392	254	262	NP	EDLTFLARS
11393	254	264	NP	EDLTFLARSAL
11393	254	264	NP	EDLTFLARSAL
11468	454	468	NP	EDVSFQGRGVFELSD
12266	434	448	NP	EGRTSDMRTEIIRMM
12283	484	498	NP	EGSYFFGDNAEEYDN
12354	81	95	NP	EHPSAGKDPKKTGGP
12622	469	483	NP	EKAASPIVPSFDMSN
13128	46	60	NP	ELKLSDYEGRLIQNS
13263	380	388	NP	ELRSRYWAI
13263	380	388	NP	ELRSRYWAI
13263	380	388	NP	ELRSRYWAI
13263	380	388	NP	ELRSRYWAI
13263	380	388	NP	ELRSRYWAI
13263	380	388	NP	ELRSRYWAI
13263	380	388	NP	ELRSRYWAI
13263	380	388	NP	ELRSRYWAI
13263	380	388	NP	ELRSRYWAI
13263	380	388	NP	ELRSRYWAI
13263	380	388	NP	ELRSRYWAI
13263	380	388	NP	ELRSRYWAI
13263	380	388	NP	ELRSRYWAI
13263	380	388	NP	ELRSRYWAI
13263	380	388	NP	ELRSRYWAI
13263	380	388	NP	ELRSRYWAI
13263	380	388	NP	ELRSRYWAI
13263	380	388	NP	ELRSRYWAI
13263	380	388	NP	ELRSRYWAI
13263	380	388	NP	ELRSRYWAI
13263	380	388	NP	ELRSRYWAI
13263	380	388	NP	ELRSRYWAI
13263	380	388	NP	ELRSRYWAI
13264	380	393	NP	ELRSRYWAIRTRSG
13264	380	393	NP	ELRSRYWAIRTRSG
13883	11	25	NP	EQMETDGERQNATEI
14070	73	92	NP	ERRNKYLEEHPSAGKDPKKT
14070	73	92	NP	ERRNKYLEEHPSAGKDPKKT
14070	73	92	NP	ERRNKYLEEHPSAGKDPKKT
14070	73	92	NP	ERRNKYLEEHPSAGKDPKKT
14070	73	92	NP	ERRNKYLEEHPSAGKDPKKT
14070	73	92	NP	ERRNKYLEEHPSAGKDPKKT
14071	73	92	NP	ERRNRYLEEHPSAGKDPKKT
14120	449	463	NP	ESARPEDVSFQGRGV
15380	71	85	NP	FDERRNKYLEEHPSA
15432	479	488	NP	FDMSNEGSYF
15433	479	493	NP	FDMSNEGSYFFGDNA
15500	338	345	NP	FEDLRVLS
15500	338	345	NP	FEDLRVLS
15501	338	346	NP	FEDLRVLSF
15501	338	346	NP	FEDLRVLSF
15590	464	478	NP	FELSDEKAASPIVPS
15629	291	305	NP	FEREGYSLVGIDPFR
15963	489	498	NP	FGDNAEEYDN
16227	346	360	NP	FIKGTKVLPRGKLST
16522	258	266	NP	FLARSALIL
17156	429	443	NP	FNGNTEGRTSDMRTE
18365	206	220	NP	FWRGENGRKTRIAYE
18366	206	229	NP	FWRGENGRKTRSAYERMCNILKGK
18366	206	229	NP	FWRGENGRKTRSAYERMCNILKGK
18366	206	229	NP	FWRGENGRKTRSAYERMCNILKGK
18366	206	229	NP	FWRGENGRKTRSAYERMCNILKGK
18366	206	229	NP	FWRGENGRKTRSAYERMCNILKGK
18366	206	229	NP	FWRGENGRKTRSAYERMCNILKGK
18366	206	229	NP	FWRGENGRKTRSAYERMCNILKGK
18366	206	229	NP	FWRGENGRKTRSAYERMCNILKGK
18366	206	229	NP	FWRGENGRKTRSAYERMCNILKGK
18366	206	229	NP	FWRGENGRKTRSAYERMCNILKGK
18366	206	229	NP	FWRGENGRKTRSAYERMCNILKGK
18366	206	229	NP	FWRGENGRKTRSAYERMCNILKGK
18366	206	229	NP	FWRGENGRKTRSAYERMCNILKGK
18405	39	47	NP	FYIQMCTEL
18405	39	47	NP	FYIQMCTEL
18405	39	47	NP	FYIQMCTEL
18406	39	47	NP	FYIQMCTEL
18406	39	47	NP	FYIQMCTEL
18406	39	47	NP	FYIQMCTEL
18406	39	47	NP	FYIQMCTEL
18406	39	47	NP	FYIQMCTEL
18406	39	47	NP	FYIQMCTEL
18406	39	47	NP	FYIQMCTEL
18406	39	47	NP	FYIQMCTEL
18406	39	47	NP	FYIQMCTEL
18505	177	186	NP	GAAGAAVKGV
18642	450	474	NP	GAKPEEMSFQGRGVFELSDEKAANP
18642	450	474	NP	GAKPEEMSFQGRGVFELSDEKAANP
18642	450	474	NP	GAKPEEMSFQGRGVFELSDEKAANP
18943	126	140	NP	GDDATAGLTHMMIWH
19421	17	25	NP	GERQNATEI
19421	17	25	NP	GERQNATEI
19421	17	25	NP	GERQNATEI
19421	17	25	NP	GERQNATEI
19421	17	25	NP	GERQNATEI
19959	93	100	NP	GGPIYRRV
20229	300	307	NP	GIDPFRLL
20534	86	100	NP	GKDPKKTGGPIYRRV
20627	356	370	NP	GKLSTRGVQIASNEN
21255	158	166	NP	GMDPRMCSL
21372	249	256	NP	GNAEFEDL
21577	282	300	NP	GPAVASGYDFEKEGYSLVG
21577	282	300	NP	GPAVASGYDFEKEGYSLVG
21577	282	300	NP	GPAVASGYDFEKEGYSLVG
22735	349	357	NP	GTKVVPRGK
22763	187	200	NP	GTMVMELIRMIKRG
22763	187	200	NP	GTMVMELIRMIKRG
22763	187	200	NP	GTMVMELIRMIKRG
22763	187	200	NP	GTMVMELIRMIKRG
22763	187	200	NP	GTMVMELIRMIKRG
22989	185	193	NP	GVGTMVMEL
22990	185	204	NP	GVGTMVMELIRMIKRGINDR
22990	185	204	NP	GVGTMVMELIRMIKRGINDR
22991	185	204	NP	GVGTMVMELVRMIKRGINDR
24257	135	143	NP	HLMIWHSNL
24714	334	341	NP	HSAAFEDL
25434	365	379	NP	IASNENMDAMESSTL
25434	365	379	NP	IASNENMDAMESSTL
25434	365	379	NP	IASNENMDAMESSTL
25434	365	379	NP	IASNENMDAMESSTL
25434	365	379	NP	IASNENMDAMESSTL
25434	365	379	NP	IASNENMDAMESSTL
25434	365	379	NP	IASNENMDAMESSTL
25435	365	380	NP	IASNENMDAMESSTLE
25435	365	380	NP	IASNENMDAMESSTLE
25435	365	380	NP	IASNENMDAMESSTLE
25435	365	380	NP	IASNENMDAMESSTLE
25435	365	380	NP	IASNENMDAMESSTLE
25435	365	380	NP	IASNENMDAMESSTLE
25435	365	380	NP	IASNENMDAMESSTLE
25435	365	380	NP	IASNENMDAMESSTLE
25438	365	379	NP	IASNENMETMESSTL
25438	365	379	NP	IASNENMETMESSTL
25439	365	380	NP	IASNENMETMESSTLE
25439	365	380	NP	IASNENMETMESSTLE
25439	365	380	NP	IASNENMETMESSTLE
25439	365	380	NP	IASNENMETMESSTLE
25439	365	380	NP	IASNENMETMESSTLE
25439	365	380	NP	IASNENMETMESSTLE
25439	365	380	NP	IASNENMETMESSTLE
25439	365	380	NP	IASNENMETMESSTLE
25439	365	380	NP	IASNENMETMESSTLE
25439	365	380	NP	IASNENMETMESSTLE
25439	365	380	NP	IASNENMETMESSTLE
25478	217	225	NP	IAYERMCNI
25479	217	226	NP	IAYERMCNIL
25642	301	315	NP	IDPFRLLQNSQVYSL
26100	257	276	NP	IFLARSALILRGSVAHKSCL
26315	36	43	NP	IGRFYIQM
26315	36	43	NP	IGRFYIQM
26315	36	43	NP	IGRFYIQM
26315	36	43	NP	IGRFYIQM
26315	36	43	NP	IGRFYIQM
26316	36	50	NP	IGRFYIQMCTELKLS
26658	444	458	NP	IIRMMESARPEDVSF
27126	225	233	NP	ILKGKFQTA
27281	265	273	NP	ILRGSIAHK
27283	265	273	NP	ILRGSVAHK
27283	265	273	NP	ILRGSVAHK
27283	265	273	NP	ILRGSVAHK
27283	265	273	NP	ILRGSVAHK
27283	265	273	NP	ILRGSVAHK
27283	265	273	NP	ILRGSVAHK
27283	265	273	NP	ILRGSVAHK
27283	265	273	NP	ILRGSVAHK
27283	265	273	NP	ILRGSVAHK
27283	265	273	NP	ILRGSVAHK
27283	265	273	NP	ILRGSVAHK
27283	265	273	NP	ILRGSVAHK
27283	265	273	NP	ILRGSVAHK
27283	265	273	NP	ILRGSVAHK
27283	265	273	NP	ILRGSVAHK
27283	265	273	NP	ILRGSVAHK
27283	265	273	NP	ILRGSVAHK
27283	265	273	NP	ILRGSVAHK
27283	265	273	NP	ILRGSVAHK
27283	265	273	NP	ILRGSVAHK
27283	265	273	NP	ILRGSVAHK
27283	265	273	NP	ILRGSVAHK
27283	265	273	NP	ILRGSVAHK
27284	265	284	NP	ILRGSVAHKSCLPACVYGLA
27612	201	215	NP	INDRNFWRGENGRKT
28187	41	55	NP	IQMCTELKLSDYEGR
28355	316	330	NP	IRPNENPAHKSQLVW
28387	116	130	NP	IRRIWRQANNGDDAT
28541	406	420	NP	ISIQPTFSVQRNLPF
29535	138	151	NP	IWHSNLNDTTYQRT
29535	138	151	NP	IWHSNLNDTTYQRT
29535	138	151	NP	IWHSNLNDTTYQRT
29535	138	151	NP	IWHSNLNDTTYQRT
29673	96	110	NP	IYRRVNGKWMRELIL
29896	236	250	NP	KAMMDQVRESRNPGN
30347	113	132	NP	KEEIRRIWRQANNGEDATAG
30920	113	126	NP	KGEIRRIWRQANNG
30920	113	126	NP	KGEIRRIWRQANNG
30920	113	126	NP	KGEIRRIWRQANNG
32157	48	56	NP	KLSDYEGRL
32158	48	57	NP	KLSDYEGRLI
32182	357	370	NP	KLSTRGVQIASNEN
32182	357	370	NP	KLSTRGVQIASNEN
32327	31	45	NP	KMIGGIGRFYIQMCT
33486	325	339	NP	KSQLVWMACHSAAFE
33682	91	99	NP	KTGGPIYKR
33682	91	99	NP	KTGGPIYKR
33682	91	99	NP	KTGGPIYKR
33682	91	99	NP	KTGGPIYKR
33682	91	99	NP	KTGGPIYKR
33682	91	99	NP	KTGGPIYKR
33682	91	99	NP	KTGGPIYKR
33683	91	105	NP	KTGGPIYRRVNGKWM
34110	351	365	NP	KVLPRGKLSTRGVQI
34318	103	111	NP	KWMRELVLY
34318	103	111	NP	KWMRELVLY
34318	103	111	NP	KWMRELVLY
34318	103	111	NP	KWMRELVLY
35589	379	387	NP	LELRSRYWA
35590	379	388	NP	LELRSRYWAI
35591	379	402	NP	LELRSRYWAIRTRSGGNTNQQRAS
35591	379	402	NP	LELRSRYWAIRTRSGGNTNQQRAS
35591	379	402	NP	LELRSRYWAIRTRSGGNTNQQRAS
35591	379	402	NP	LELRSRYWAIRTRSGGNTNQQRAS
35591	379	402	NP	LELRSRYWAIRTRSGGNTNQQRAS
35591	379	402	NP	LELRSRYWAIRTRSGGNTNQQRAS
35591	379	402	NP	LELRSRYWAIRTRSGGNTNQQRAS
35591	379	402	NP	LELRSRYWAIRTRSGGNTNQQRAS
35591	379	402	NP	LELRSRYWAIRTRSGGNTNQQRAS
35591	379	402	NP	LELRSRYWAIRTRSGGNTNQQRAS
36516	256	264	NP	LIFLARSAL
36517	256	265	NP	LIFLARSALI
36613	264	273	NP	LILRGSVAHK
36620	108	116	NP	LILYDKEEI
36674	56	70	NP	LIQNSLTIERMVLSA
36692	193	212	NP	LIRMIKRGINDRNFWRGENG
36862	226	240	NP	LKGKFQTAAQKAMMD
36863	226	245	NP	LKGKFQTAAQRAMMDQVRES
36863	226	245	NP	LKGKFQTAAQRAMMDQVRES
36863	226	245	NP	LKGKFQTAAQRAMMDQVRES
37710	306	315	NP	LLQNSQVFSL
37711	306	320	NP	LLQNSQVYSLIRPNE
38099	166	180	NP	LMQGSTLPRRSGAAG
38391	276	290	NP	LPACVYGPAVASGYD
38466	418	426	NP	LPFDKPTIM
38466	418	426	NP	LPFDKPTIM
38466	418	426	NP	LPFDKPTIM
38466	418	426	NP	LPFDKPTIM
38466	418	426	NP	LPFDKPTIM
38466	418	426	NP	LPFDKPTIM
38466	418	426	NP	LPFDKPTIM
38466	418	426	NP	LPFDKPTIM
38466	418	426	NP	LPFDKPTIM
38466	418	426	NP	LPFDKPTIM
38466	418	426	NP	LPFDKPTIM
38466	418	426	NP	LPFDKPTIM
38466	418	426	NP	LPFDKPTIM
38466	418	426	NP	LPFDKPTIM
38467	418	426	NP	LPFDKSTIM
38467	418	426	NP	LPFDKSTIM
38467	418	426	NP	LPFDKSTIM
38467	418	426	NP	LPFDKSTIM
38467	418	426	NP	LPFDKSTIM
38467	418	426	NP	LPFDKSTIM
38467	418	426	NP	LPFDKSTIM
38467	418	426	NP	LPFDKSTIM
38467	418	426	NP	LPFDKSTIM
38468	418	426	NP	LPFDRTTIM
38468	418	426	NP	LPFDRTTIM
38468	418	426	NP	LPFDRTTIM
38469	418	426	NP	LPFDRTTVM
38469	418	426	NP	LPFDRTTVM
38469	418	426	NP	LPFDRTTVM
38471	418	426	NP	LPFEKSTVM
38471	418	426	NP	LPFEKSTVM
38471	418	426	NP	LPFEKSTVM
38471	418	426	NP	LPFEKSTVM
38471	418	426	NP	LPFEKSTVM
38471	418	426	NP	LPFEKSTVM
38471	418	426	NP	LPFEKSTVM
38471	418	426	NP	LPFEKSTVM
38471	418	426	NP	LPFEKSTVM
38471	418	426	NP	LPFEKSTVM
38471	418	426	NP	LPFEKSTVM
38471	418	426	NP	LPFEKSTVM
38471	418	426	NP	LPFEKSTVM
38471	418	426	NP	LPFEKSTVM
38471	418	426	NP	LPFEKSTVM
38471	418	426	NP	LPFEKSTVM
38471	418	426	NP	LPFEKSTVM
38472	418	426	NP	LPFERATIM
38472	418	426	NP	LPFERATIM
38473	418	426	NP	LPFERSTIM
38473	418	426	NP	LPFERSTIM
38689	172	185	NP	LPRRSGAAGAAVKG
38689	172	185	NP	LPRRSGAAGAAVKG
38689	172	185	NP	LPRRSGAAGAAVKG
39108	266	280	NP	LRGSVAHKSCLPACV
39214	381	388	NP	LRSRYWAI
39214	381	388	NP	LRSRYWAI
39215	381	395	NP	LRSRYWAIRTRSGGN
39238	341	355	NP	LRVLSFIKGTKVLPR
39239	341	362	NP	LRVLSFIRGTKVSPRGKLSTRG
39239	341	362	NP	LRVLSFIRGTKVSPRGKLSTRG
39239	341	362	NP	LRVLSFIRGTKVSPRGKLSTRG
39304	466	478	NP	LSDEKAANPIVPS
39304	466	478	NP	LSDEKAANPIVPS
39304	466	478	NP	LSDEKAANPIVPS
39900	256	270	NP	LTFLARSALILRGSV
39953	61	75	NP	LTIERMVLSAFDERR
41009	331	345	NP	MACHSAAFEDLRVLS
41128	1	15	NP	MASQGTKRSYEQMET
41395	191	205	NP	MELVRMIKRGINDRN
41447	371	385	NP	METMESSTLELRSRY
41691	32	40	NP	MIDGIGRFY
41732	196	210	NP	MIKRGINDRNFWRGE
41793	137	156	NP	MIWHSNLNDATYQRTRALVR
42129	136	143	NP	MMIWHSNL
42130	136	150	NP	MMIWHSNLNDATYQR
42968	66	80	NP	MVLSAFDERRNKYLE
42974	189	197	NP	MVMELIRMI
42975	189	198	NP	MVMELVRMIK
42975	189	198	NP	MVMELVRMIK
43320	21	35	NP	NATEIRASVGKMIGG
44022	101	115	NP	NGKWMRELILYDKEE
44065	211	225	NP	NGRKTRIAYERMCNI
44633	76	90	NP	NKYLEEHPSAGKDPK
44830	417	425	NP	NLPFERATI
44965	370	379	NP	NMEAMDSNTL
45296	321	335	NP	NPAHKSQLVWMACHS
45297	321	340	NP	NPAHKSQLVWMACHSAAFED
45297	321	340	NP	NPAHKSQLVWMACHSAAFED
45954	309	316	NP	NSQVYSLI
46150	377	396	NP	NTLELRSRYWAIRTRSGGNT
48010	474	488	NP	PIVPSFDMSNEGSYF
48095	89	101	NP	PKKTGGPIYKRVD
48095	89	101	NP	PKKTGGPIYKRVD
48095	89	101	NP	PKKTGGPIYKRVD
48096	89	101	NP	PKKTGGPIYRRVN
48626	318	335	NP	PNENPAHKSQLVWMACNS
48626	318	335	NP	PNENPAHKSQLVWMACNS
48626	318	335	NP	PNENPAHKSQLVWMACNS
49219	161	175	NP	PRMCSLMQGSTLPRR
49220	161	180	NP	PRMCSLMQGSTLPRRSGAAG
49363	477	498	NP	PSFDMSNEGSYFFGDNAEEYDN
49363	477	498	NP	PSFDMSNEGSYFFGDNAEEYDN
49363	477	498	NP	PSFDMSNEGSYFFGDNAEEYDN
50953	459	473	NP	QGRGVFELSDEKAAS
51136	405	414	NP	QISVQPTFSV
52141	398	413	NP	QQRASAGQISIQPTFS
52461	231	245	NP	QTAAQKAMMDQVRES
52772	241	255	NP	QVRESRNPGNAEFED
52773	241	260	NP	QVRESRNPGNAEFEDLTFLA
52824	311	325	NP	QVYSLIRPNENPAHK
52824	311	325	NP	QVYSLIRPNENPAHK
52824	311	325	NP	QVYSLIRPNENPAHK
53216	26	40	NP	RASVGKMIDGIGRFY
53216	26	40	NP	RASVGKMIDGIGRFY
53216	26	40	NP	RASVGKMIDGIGRFY
53216	26	40	NP	RASVGKMIDGIGRFY
53217	26	40	NP	RASVGKMIGGIGRFY
53565	106	120	NP	RELILYDKEEIRRIW
53806	38	47	NP	RFYIQMCTEL
53806	38	47	NP	RFYIQMCTEL
53890	199	207	NP	RGINDRNFW
54013	361	375	NP	RGVQIASNENMETME
54129	216	230	NP	RIAYERMCNILKGKF
54592	55	63	NP	RLIQNSITI
54593	55	63	NP	RLIQNSLTI
54593	55	63	NP	RLIQNSLTI
54593	55	63	NP	RLIQNSLTI
54593	55	63	NP	RLIQNSLTI
54593	55	63	NP	RLIQNSLTI
54593	55	63	NP	RLIQNSLTI
54593	55	63	NP	RLIQNSLTI
54593	55	63	NP	RLIQNSLTI
54593	55	63	NP	RLIQNSLTI
54593	55	63	NP	RLIQNSLTI
54593	55	63	NP	RLIQNSLTI
54593	55	63	NP	RLIQNSLTI
54593	55	63	NP	RLIQNSLTI
54593	55	63	NP	RLIQNSLTI
54593	55	63	NP	RLIQNSLTI
54593	55	63	NP	RLIQNSLTI
54594	55	69	NP	RLIQNSLTIERMVLS
54594	55	69	NP	RLIQNSLTIERMVLS
54594	55	69	NP	RLIQNSLTIERMVLS
54594	55	69	NP	RLIQNSLTIERMVLS
54594	55	69	NP	RLIQNSLTIERMVLS
54594	55	69	NP	RLIQNSLTIERMVLS
54594	55	69	NP	RLIQNSLTIERMVLS
54594	55	69	NP	RLIQNSLTIERMVLS
54595	55	77	NP	RLIQNSLTIERMVLSAFDERRNK
54595	55	77	NP	RLIQNSLTIERMVLSAFDERRNK
54595	55	77	NP	RLIQNSLTIERMVLSAFDERRNK
54595	55	77	NP	RLIQNSLTIERMVLSAFDERRNK
54595	55	77	NP	RLIQNSLTIERMVLSAFDERRNK
54595	55	77	NP	RLIQNSLTIERMVLSAFDERRNK
54595	55	77	NP	RLIQNSLTIERMVLSAFDERRNK
54595	55	77	NP	RLIQNSLTIERMVLSAFDERRNK
54595	55	77	NP	RLIQNSLTIERMVLSAFDERRNK
54872	221	235	NP	RMCNILKGKFQTAAQ
54924	446	460	NP	RMMESARPEDVSFQG
54955	65	84	NP	RMVLSAFDERRNRYLEEHPS
55020	416	430	NP	RNLPFDRTTIMAAFN
55043	246	260	NP	RNPGNAEFEDLTFLA
55401	121	135	NP	RQANNGDDATAGLTH
55737	174	184	NP	RRSGAAGAAIK
55738	174	184	NP	RRSGAAGAAVK
55738	174	184	NP	RRSGAAGAAVK
55738	174	184	NP	RRSGAAGAAVK
55738	174	184	NP	RRSGAAGAAVK
55738	174	184	NP	RRSGAAGAAVK
55738	174	184	NP	RRSGAAGAAVK
55738	174	184	NP	RRSGAAGAAVK
55738	174	184	NP	RRSGAAGAAVK
55738	174	184	NP	RRSGAAGAAVK
55738	174	184	NP	RRSGAAGAAVK
55766	98	106	NP	RRVNGKWMR
55796	261	275	NP	RSALILRGSVAHKSC
55796	261	275	NP	RSALILRGSVAHKSC
55796	261	275	NP	RSALILRGSVAHKSC
55808	216	229	NP	RSAYERMCNILKGK
55808	216	229	NP	RSAYERMCNILKGK
55808	216	229	NP	RSAYERMCNILKGK
55808	216	229	NP	RSAYERMCNILKGK
55847	391	405	NP	RSGGNTNQQRASAGQ
56039	441	460	NP	RTEIIRMMESARPEDVSFQG
56039	441	460	NP	RTEIIRMMESARPEDVSFQG
56063	156	170	NP	RTGMDPRMCSLMQGS
56177	436	450	NP	RTSDMRTEIIRMMES
56253	99	110	NP	RVDGKWMRELVL
56253	99	110	NP	RVDGKWMRELVL
56253	99	110	NP	RVDGKWMRELVL
56355	342	351	NP	RVLSFIKGTK
56355	342	351	NP	RVLSFIKGTK
56355	342	351	NP	RVLSFIKGTK
56355	342	351	NP	RVLSFIKGTK
56681	384	391	NP	RYWAIRTR
56696	335	342	NP	SAAFEDLR
56696	335	342	NP	SAAFEDLR
56697	335	349	NP	SAAFEDLRVLSFIKG
56697	335	349	NP	SAAFEDLRVLSFIKG
56698	335	349	NP	SAAFEDLRVLSFIRG
56698	335	349	NP	SAAFEDLRVLSFIRG
56698	335	349	NP	SAAFEDLRVLSFIRG
56698	335	349	NP	SAAFEDLRVLSFIRG
56698	335	349	NP	SAAFEDLRVLSFIRG
56698	335	349	NP	SAAFEDLRVLSFIRG
56698	335	349	NP	SAAFEDLRVLSFIRG
56698	335	349	NP	SAAFEDLRVLSFIRG
56698	335	349	NP	SAAFEDLRVLSFIRG
56698	335	349	NP	SAAFEDLRVLSFIRG
56860	262	270	NP	SALILRGSV
57108	274	283	NP	SCLPACVYGL
57249	438	450	NP	SDMRAEIIRMMEG
57249	438	450	NP	SDMRAEIIRMMEG
57249	438	450	NP	SDMRAEIIRMMEG
57249	438	450	NP	SDMRAEIIRMMEG
57249	438	450	NP	SDMRAEIIRMMEG
57249	438	450	NP	SDMRAEIIRMMEG
57249	438	450	NP	SDMRAEIIRMMEG
57322	50	57	NP	SDYEGRLI
57322	50	57	NP	SDYEGRLI
57322	50	57	NP	SDYEGRLI
57322	50	57	NP	SDYEGRLI
57322	50	57	NP	SDYEGRLI
57322	50	57	NP	SDYEGRLI
57322	50	57	NP	SDYEGRLI
57322	50	57	NP	SDYEGRLI
57322	50	57	NP	SDYEGRLI
57322	50	57	NP	SDYEGRLI
57322	50	57	NP	SDYEGRLI
57322	50	57	NP	SDYEGRLI
57322	50	57	NP	SDYEGRLI
57322	50	57	NP	SDYEGRLI
57322	50	57	NP	SDYEGRLI
57322	50	57	NP	SDYEGRLI
57322	50	57	NP	SDYEGRLI
57322	50	57	NP	SDYEGRLI
57322	50	57	NP	SDYEGRLI
57322	50	57	NP	SDYEGRLI
57322	50	57	NP	SDYEGRLI
57322	50	57	NP	SDYEGRLI
57322	50	57	NP	SDYEGRLI
57322	50	57	NP	SDYEGRLI
57322	50	57	NP	SDYEGRLI
57325	50	63	NP	SDYEGRLIQNSLTI
57325	50	63	NP	SDYEGRLIQNSLTI
57325	50	63	NP	SDYEGRLIQNSLTI
57325	50	63	NP	SDYEGRLIQNSLTI
57325	50	63	NP	SDYEGRLIQNSLTI
57325	50	63	NP	SDYEGRLIQNSLTI
57795	345	360	NP	SFIKGTKVLPRGKLST
57968	176	190	NP	SGAAGAAVKGVGTMV
58318	287	294	NP	SGYDFERE
58335	144	152	NP	SGYWAIRTR
59546	297	318	NP	SLVGIDPFKLLQNSQVYSLIRP
59546	297	318	NP	SLVGIDPFKLLQNSQVYSLIRP
59546	297	318	NP	SLVGIDPFKLLQNSQVYSLIRP
59547	297	306	NP	SLVGIDPFRL
59548	297	316	NP	SLVGIDPFRLLQNSQVFSLI
59812	482	489	NP	SNEGSYFF
59813	482	498	NP	SNEGSYFFGDNAEEYDN
59863	141	155	NP	SNLNDATYQRTRALV
60089	473	481	NP	SPIVPSFDM
60090	473	487	NP	SPIVPSFDMSNEGSY
60503	326	340	NP	SQLVWMACHSAAFED
60856	383	388	NP	SRYWAI
60856	383	388	NP	SRYWAI
60856	383	388	NP	SRYWAI
60867	144	152	NP	SRYWAIRTR
60867	144	152	NP	SRYWAIRTR
60867	144	152	NP	SRYWAIRTR
60867	383	391	NP	SRYWAIRTR
60867	383	391	NP	SRYWAIRTR
60867	383	391	NP	SRYWAIRTR
60867	383	391	NP	SRYWAIRTR
60867	383	391	NP	SRYWAIRTR
60867	383	391	NP	SRYWAIRTR
60867	383	391	NP	SRYWAIRTR
60867	383	391	NP	SRYWAIRTR
60867	383	391	NP	SRYWAIRTR
60867	383	391	NP	SRYWAIRTR
60867	383	391	NP	SRYWAIRTR
60867	383	391	NP	SRYWAIRTR
60867	383	391	NP	SRYWAIRTR
60867	383	391	NP	SRYWAIRTR
60867	383	391	NP	SRYWAIRTR
60867	383	391	NP	SRYWAIRTR
60867	383	391	NP	SRYWAIRTR
60867	383	391	NP	SRYWAIRTR
60867	383	391	NP	SRYWAIRTR
60867	383	391	NP	SRYWAIRTR
60867	383	391	NP	SRYWAIRTR
60867	383	391	NP	SRYWAIRTR
60867	383	391	NP	SRYWAIRTR
60867	383	391	NP	SRYWAIRTR
60867	383	391	NP	SRYWAIRTR
60867	383	391	NP	SRYWAIRTR
60867	383	391	NP	SRYWAIRTR
60867	383	391	NP	SRYWAIRTR
60867	383	391	NP	SRYWAIRTR
60867	383	391	NP	SRYWAIRTR
60867	383	391	NP	SRYWAIRTR
60867	383	391	NP	SRYWAIRTR
60867	383	391	NP	SRYWAIRTR
60867	383	391	NP	SRYWAIRTR
61401	376	390	NP	SSTLELRSRYWAIRT
62302	413	435	NP	SVQRNLPFDKPTIMAAFTGNTEG
62302	413	435	NP	SVQRNLPFDKPTIMAAFTGNTEG
62302	413	435	NP	SVQRNLPFDKPTIMAAFTGNTEG
62302	413	435	NP	SVQRNLPFDKPTIMAAFTGNTEG
62302	413	435	NP	SVQRNLPFDKPTIMAAFTGNTEG
62302	413	435	NP	SVQRNLPFDKPTIMAAFTGNTEG
62302	413	435	NP	SVQRNLPFDKPTIMAAFTGNTEG
62302	413	435	NP	SVQRNLPFDKPTIMAAFTGNTEG
62302	413	435	NP	SVQRNLPFDKPTIMAAFTGNTEG
62303	413	426	NP	SVQRNLPFDRTTIM
63386	433	452	NP	TEGRTSDMRTEIIRMMESAR
63452	45	60	NP	TELKLSDYEGRLIQNS
63452	45	60	NP	TELKLSDYEGRLIQNS
63452	45	60	NP	TELKLSDYEGRLIQNS
63452	45	60	NP	TELKLSDYEGRLIQNS
63453	45	65	NP	TELKLSDYEGRLIQNSLTIER
63453	45	65	NP	TELKLSDYEGRLIQNSLTIER
63453	45	65	NP	TELKLSDYEGRLIQNSLTIER
63750	411	425	NP	TFSVQRNLPFDRTTI
64375	424	438	NP	TIMAAFNGNTEGRTS
64376	424	439	NP	TIMAAFNGNTEGRTSD
64664	6	13	NP	TKRSYEQM
64665	6	20	NP	TKRSYEQMETDGERQ
65014	171	185	NP	TLPRRSGAAGAAVKG
65270	188	197	NP	TMVMELIRMI
65271	188	198	NP	TMVMELVRMIK
65271	188	198	NP	TMVMELVRMIK
65271	188	198	NP	TMVMELVRMIK
65405	396	410	NP	TNQQRASAGQISIQP
65994	151	165	NP	TRALVRTGMDPRMCS
66032	215	222	NP	TRIAYERM
66924	146	154	NP	TTYQRTRAL
66924	146	154	NP	TTYQRTRAL
67436	147	155	NP	TYQRTRALV
67436	147	155	NP	TYQRTRALV
67436	147	155	NP	TYQRTRALV
67436	147	155	NP	TYQRTRALV
67436	147	155	NP	TYQRTRALV
67436	147	155	NP	TYQRTRALV
67436	147	155	NP	TYQRTRALV
67436	147	155	NP	TYQRTRALV
67436	147	155	NP	TYQRTRALV
67436	147	155	NP	TYQRTRALV
67436	147	155	NP	TYQRTRALV
67436	147	155	NP	TYQRTRALV
67436	147	155	NP	TYQRTRALV
67436	147	155	NP	TYQRTRALV
67436	147	155	NP	TYQRTRALV
67436	147	155	NP	TYQRTRALV
67436	147	155	NP	TYQRTRALV
67436	147	155	NP	TYQRTRALV
67436	147	155	NP	TYQRTRALV
67436	147	155	NP	TYQRTRALV
67436	147	155	NP	TYQRTRALV
67436	147	155	NP	TYQRTRALV
67436	147	155	NP	TYQRTRALV
67436	147	155	NP	TYQRTRALV
67436	147	155	NP	TYQRTRALV
67436	147	155	NP	TYQRTRALV
67436	147	155	NP	TYQRTRALV
67436	147	155	NP	TYQRTRALV
67436	147	155	NP	TYQRTRALV
67436	147	155	NP	TYQRTRALV
67436	147	155	NP	TYQRTRALV
67436	147	155	NP	TYQRTRALV
67436	147	155	NP	TYQRTRALV
67436	147	155	NP	TYQRTRALV
67436	147	155	NP	TYQRTRALV
67436	147	155	NP	TYQRTRALV
67436	147	155	NP	TYQRTRALV
67436	147	155	NP	TYQRTRALV
67436	147	155	NP	TYQRTRALV
67436	147	155	NP	TYQRTRALV
67436	147	155	NP	TYQRTRALV
67436	147	155	NP	TYQRTRALV
67436	147	155	NP	TYQRTRALV
67436	147	155	NP	TYQRTRALV
67436	147	155	NP	TYQRTRALV
67436	147	155	NP	TYQRTRALV
67436	147	155	NP	TYQRTRALV
67436	147	155	NP	TYQRTRALV
67436	147	155	NP	TYQRTRALV
67436	147	155	NP	TYQRTRALV
67436	147	155	NP	TYQRTRALV
67436	147	155	NP	TYQRTRALV
67436	147	155	NP	TYQRTRALV
67436	147	155	NP	TYQRTRALV
67436	147	155	NP	TYQRTRALV
67436	147	155	NP	TYQRTRALV
67436	147	155	NP	TYQRTRALV
67436	147	155	NP	TYQRTRALV
67436	147	155	NP	TYQRTRALV
67436	147	155	NP	TYQRTRALV
67436	147	155	NP	TYQRTRALV
67436	147	155	NP	TYQRTRALV
67436	147	155	NP	TYQRTRALV
67436	147	155	NP	TYQRTRALV
67436	147	155	NP	TYQRTRALV
67436	147	155	NP	TYQRTRALV
67436	147	155	NP	TYQRTRALV
67436	147	155	NP	TYQRTRALV
67436	147	155	NP	TYQRTRALV
67436	147	155	NP	TYQRTRALV
67436	147	155	NP	TYQRTRALV
67436	147	155	NP	TYQRTRALV
67436	147	155	NP	TYQRTRALV
67436	147	155	NP	TYQRTRALV
67436	147	155	NP	TYQRTRALV
67436	147	155	NP	TYQRTRALV
67436	147	155	NP	TYQRTRALV
67436	147	155	NP	TYQRTRALV
67436	147	155	NP	TYQRTRALV
67436	147	155	NP	TYQRTRALV
67436	147	155	NP	TYQRTRALV
67436	147	155	NP	TYQRTRALV
67436	147	155	NP	TYQRTRALV
67436	147	155	NP	TYQRTRALV
67436	147	155	NP	TYQRTRALV
67436	147	155	NP	TYQRTRALV
67436	147	155	NP	TYQRTRALV
67436	147	155	NP	TYQRTRALV
67436	147	155	NP	TYQRTRALV
67436	147	155	NP	TYQRTRALV
67436	147	155	NP	TYQRTRALV
67436	147	155	NP	TYQRTRALV
67437	147	158	NP	TYQRTRALVRTG
67437	147	158	NP	TYQRTRALVRTG
67437	147	158	NP	TYQRTRALVRTG
67437	147	158	NP	TYQRTRALVRTG
67437	147	158	NP	TYQRTRALVRTG
67437	147	158	NP	TYQRTRALVRTG
67437	147	158	NP	TYQRTRALVRTG
67437	147	158	NP	TYQRTRALVRTG
67437	147	158	NP	TYQRTRALVRTG
67437	147	158	NP	TYQRTRALVRTG
67437	147	158	NP	TYQRTRALVRTG
67437	147	158	NP	TYQRTRALVRTG
67437	147	158	NP	TYQRTRALVRTG
67437	147	158	NP	TYQRTRALVRTG
67437	147	158	NP	TYQRTRALVRTG
67437	147	158	NP	TYQRTRALVRTG
67437	147	158	NP	TYQRTRALVRTG
67437	147	158	NP	TYQRTRALVRTG
67437	147	158	NP	TYQRTRALVRTG
67437	147	158	NP	TYQRTRALVRTG
67438	147	160	NP	TYQRTRALVRTGMD
67438	147	160	NP	TYQRTRALVRTGMD
67438	147	160	NP	TYQRTRALVRTGMD
67439	147	161	NP	TYQRTRALVRTGMDP
67439	147	161	NP	TYQRTRALVRTGMDP
67439	147	161	NP	TYQRTRALVRTGMDP
67439	147	161	NP	TYQRTRALVRTGMDP
67439	147	161	NP	TYQRTRALVRTGMDP
67439	147	161	NP	TYQRTRALVRTGMDP
67439	147	161	NP	TYQRTRALVRTGMDP
67439	147	161	NP	TYQRTRALVRTGMDP
67439	147	161	NP	TYQRTRALVRTGMDP
67439	147	161	NP	TYQRTRALVRTGMDP
67439	147	161	NP	TYQRTRALVRTGMDP
67439	147	161	NP	TYQRTRALVRTGMDP
67439	147	161	NP	TYQRTRALVRTGMDP
67439	147	161	NP	TYQRTRALVRTGMDP
67439	147	161	NP	TYQRTRALVRTGMDP
67439	147	161	NP	TYQRTRALVRTGMDP
67628	270	283	NP	VAHKSCLPACVYGP
67628	270	283	NP	VAHKSCLPACVYGP
67628	270	283	NP	VAHKSCLPACVYGP
67628	270	283	NP	VAHKSCLPACVYGP
67628	270	283	NP	VAHKSCLPACVYGP
67628	270	283	NP	VAHKSCLPACVYGP
67628	270	283	NP	VAHKSCLPACVYGP
68804	186	200	NP	VGTMVMELVRMIKRG
70711	105	124	NP	VRELILYDKEEIRRIWRQAN
70712	242	262	NP	VRESRNPGNAEIEDLIFLARS
70712	242	262	NP	VRESRNPGNAEIEDLIFLARS
70712	242	262	NP	VRESRNPGNAEIEDLIFLARS
70712	242	262	NP	VRESRNPGNAEIEDLIFLARS
70933	456	470	NP	VSFQGRGVFELSDEK
72234	386	400	NP	WAIRTRSGGNTNQQR
73552	111	125	NP	YDKEEIRRIWRQANN
74065	281	295	NP	YGPAVASGYDFEREG
74357	40	49	NP	YIQMCTELKL
75671	97	105	NP	YRRVNGKWM
75671	97	105	NP	YRRVNGKWM
75671	97	105	NP	YRRVNGKWM
75671	97	105	NP	YRRVNGKWM
75671	97	105	NP	YRRVNGKWM
75805	296	310	NP	YSLVGIDPFRLLQNS
79763	146	158	NP	ATYQRTRALVRTG
79763	146	158	NP	ATYQRTRALVRTG
79784	302	314	NP	DPFRLLQNSQVYS
79802	443	455	NP	EIIRMMESARPED
79802	443	455	NP	EIIRMMESARPED
79846	404	417	NP	GQISIQPTFSVQRN
79846	404	417	NP	GQISIQPTFSVQRN
79846	404	417	NP	GQISIQPTFSVQRN
79946	76	88	NP	NKYLEEHPSAGKD
79946	76	88	NP	NKYLEEHPSAGKD
80010	446	458	NP	RMMESARPEDVSF
97164	427	444	NP	AAFTGNTEGRTSDMRAEI
97165	427	444	NP	AAFTGNTEGRTSDMRTEI
97173	251	260	NP	AEIEDLIFLA
97178	70	87	NP	AFDERRNKYLEEHPSAGK
97179	70	87	NP	AFDERRNRYLEEHPSAGK
97180	337	353	NP	AFEDLRLLSFIRGTKVS
97200	237	253	NP	AMVDQVRESRNPGNAEI
97250	18	33	NP	DRQNATEIRASVGKMI
97257	449	466	NP	EGAKPEEVSFRGRGVFEL
97262	443	458	NP	EIIRMMEGAKPEEVSF
97263	443	458	NP	EIIRMMESARPEDVSF
97264	24	41	NP	EIRASVGKMIDGIGRFYI
97265	24	41	NP	EIRASVGRMVSGIGRFYI
97269	192	208	NP	ELIRMIKRGINDRNFWR
97270	192	208	NP	ELIRMVKRGINDRNFWR
97281	18	33	NP	ERQNATEIRASVGRMV
97298	338	346	NP	FEDLRVSSF
97306	258	273	NP	FLARSALILRGSVAHK
97306	258	273	NP	FLARSALILRGSVAHK
97306	258	273	NP	FLARSALILRGSVAHK
97306	258	273	NP	FLARSALILRGSVAHK
97306	258	273	NP	FLARSALILRGSVAHK
97306	258	273	NP	FLARSALILRGSVAHK
97306	258	273	NP	FLARSALILRGSVAHK
97306	258	273	NP	FLARSALILRGSVAHK
97306	258	273	NP	FLARSALILRGSVAHK
97306	258	273	NP	FLARSALILRGSVAHK
97306	258	273	NP	FLARSALILRGSVAHK
97306	258	273	NP	FLARSALILRGSVAHK
97306	258	273	NP	FLARSALILRGSVAHK
97306	258	273	NP	FLARSALILRGSVAHK
97306	258	273	NP	FLARSALILRGSVAHK
97306	258	273	NP	FLARSALILRGSVAHK
97306	258	273	NP	FLARSALILRGSVAHK
97318	177	194	NP	GAAGAAVKGIGTMVMELI
97344	356	373	NP	GKLSTRGVQIASNENMDN
97346	102	119	NP	GKWMRELVLYDKEEIRRI
97347	102	119	NP	GKWVRELILYDKEEIRRI
97357	394	408	NP	GNTNQQRASAGQISV
97358	394	408	NP	GNTNQQRASAGQTSV
97361	404	420	NP	GQISVQPTFSVQRNLPF
97362	404	420	NP	GQTSVQPTFSVQRNLPF
97410	470	487	NP	KATNPIVPSFDMNNEGSY
97411	470	487	NP	KATNPIVPSFDMSNEGSY
97416	229	246	NP	KFQTAAQRAMMDQVRESR
97417	229	246	NP	KFQTAAQRAMVDQVRESR
97447	264	281	NP	LILRGSVAHKSCLPACAY
97448	264	281	NP	LILRGSVAHKSCLPACVY
97449	56	71	NP	LIQNSITIERMVLSAF
97450	56	71	NP	LIQNSLTIEKMVLSAF
97451	315	332	NP	LIRPNENPAHKSQLVWMA
97451	315	332	NP	LIRPNENPAHKSQLVWMA
97466	418	426	NP	LPFDKTTIM
97467	418	426	NP	LPFEKSTIM
97473	307	324	NP	LQNSQIYSLIRPNENPAH
97487	328	342	NP	LVWMACHSAAFEDLR
97490	1	19	NP	MASQGTKRSYEQMETDGDR
97496	32	49	NP	MIDGIGRFYIQMCTELKL
97511	32	49	NP	MVSGIGRFYIQMCTELKL
97529	397	414	NP	NQQRASAGQISVQPTFSV
97530	397	414	NP	NQQRASAGQTSVQPTFSV
97546	419	436	NP	PFEKSTIMAAFTGNTEGR
97583	327	337	NP	QLVWMACHSAA
97607	213	230	NP	RKTRSAYERMCNILKGKF
97609	221	238	NP	RMCNILKGKFQTAAQRAM
97609	221	238	NP	RMCNILKGKFQTAAQRAM
97614	65	74	NP	RMVLSAFDER
97621	213	230	NP	RRTRIAYERMCNILKGKF
97637	478	493	NP	SFDMSNEGSYFFGDNA
97638	457	471	NP	SFRGRGVFELSDEKA
97664	170	186	NP	STLPRRSGAAGAAVKGI
97665	170	186	NP	STLPRRSGAAGAAVKGV
97684	411	428	NP	TFSVQRNLPFEKSTIMAA
97689	62	79	NP	TIEKMVLSAFDERRNKYL
97694	378	395	NP	TLELRSGYWAIRTRSGGN
97764	329	346	NP	VWMACHSAAFEDLRLLSF
97765	329	346	NP	VWMACHSAAFEDLRVSSF
97765	329	346	NP	VWMACHSAAFEDLRVSSF
97765	329	346	NP	VWMACHSAAFEDLRVSSF
97765	329	346	NP	VWMACHSAAFEDLRVSSF
97766	386	403	NP	WAIRTRSGGNTNQQRASA
97766	386	403	NP	WAIRTRSGGNTNQQRASA
97772	219	228	NP	YERMCNILKG
97774	40	57	NP	YIQMCTELKLSDHEGRLI
97775	40	57	NP	YIQMCTELKLSDYEGRLI
108186	463	477	NP	VFELSDERAANPIVP
113368	107	119	NP	ELILYDKEEIRRI
113470	404	416	NP	GQISIQPTFSVQR
113500	187	201	NP	GTMVMELVRMIKRGI
113545	109	122	NP	ILYDKEEIRRIWRQ
113816	55	68	NP	RLIQNSLTIERMVL
113835	342	355	NP	RVLSFIKGTKVLPR
116120	418	426	NP	LPFDKATIM
116121	418	426	NP	LPFDKITIM
116122	418	426	NP	LPFDKQTIM
116123	418	426	NP	LPFDKSTVM
116127	418	426	NP	LPFDRPTIM
116133	418	426	NP	LPFEKSIVM
116134	418	426	NP	LPFEKTTIM
116135	418	426	NP	LPFERATII
116136	418	426	NP	LPFERATVM
116137	424	432	NP	LPFERSTVM
116139	418	426	NP	LPFGKTTIM
126779	321	340	NP	NPAHKSQLVWMACNSAAFED
126779	321	340	NP	NPAHKSQLVWMACNSAAFED
126779	321	340	NP	NPAHKSQLVWMACNSAAFED
126907	441	459	NP	RAEIIKMMESARPEEVSFQ
126907	441	459	NP	RAEIIKMMESARPEEVSFQ
126907	441	459	NP	RAEIIKMMESARPEEVSFQ
126960	75	88	NP	RNKYLEEHPSAGKD
127007	441	459	NP	RTEVIRMMESAKPEDLSFQ
127007	441	459	NP	RTEVIRMMESAKPEDLSFQ
128184	336	352	NP	AAFEDLRVSSFIRGTRV
128184	336	352	NP	AAFEDLRVSSFIRGTRV
128202	181	197	NP	AAVKGVGTMVLELIRMI
128202	181	197	NP	AAVKGVGTMVLELIRMI
128236	85	101	NP	AGKDPKKTGGPIYKRVD
128236	85	101	NP	AGKDPKKTGGPIYKRVD
128306	234	250	NP	AQKAMMDQVRESRNPGN
128306	234	250	NP	AQKAMMDQVRESRNPGN
128328	366	382	NP	ASNENMDAIVSSTLELR
128328	366	382	NP	ASNENMDAIVSSTLELR
128377	223	239	NP	CNILKGKFQTAAQKAMM
128377	223	239	NP	CNILKGKFQTAAQKAMM
128396	372	388	NP	DAIVSSTLELRSRYWAI
128396	372	388	NP	DAIVSSTLELRSRYWAI
128400	127	143	NP	DDATAGLTHIMIWHSNL
128400	127	143	NP	DDATAGLTHIMIWHSNL
128407	468	484	NP	DERATNPIVPSFDMSNE
128407	468	484	NP	DERATNPIVPSFDMSNE
128434	480	496	NP	DMSNEGSYFFGDNAEEY
128434	480	496	NP	DMSNEGSYFFGDNAEEY
128454	240	256	NP	DQVRESRNPGNAEIEDL
128454	240	256	NP	DQVRESRNPGNAEIEDL
128469	145	161	NP	DTTYQRTRALVRTGMDP
128469	145	161	NP	DTTYQRTRALVRTGMDP
128518	294	310	NP	EGYSLVGVDPFKLLQTS
128518	294	310	NP	EGYSLVGVDPFKLLQTS
128520	252	268	NP	EIEDLTFLARSALILRG
128520	252	268	NP	EIEDLTFLARSALILRG
128526	115	131	NP	EIRRIWRQANNGDDATA
128526	115	131	NP	EIRRIWRQANNGDDATA
128577	73	89	NP	ERRNKYLEEHPSAGKDP
128577	73	89	NP	ERRNKYLEEHPSAGKDP
128609	420	436	NP	FDKTTIMAAFTGNTEGR
128609	420	436	NP	FDKTTIMAAFTGNTEGR
128638	258	274	NP	FLARSALILRGSVAHKS
128638	258	274	NP	FLARSALILRGSVAHKS
128762	282	298	NP	GPAVASGYDFEKEGYSL
128762	282	298	NP	GPAVASGYDFEKEGYSL
128780	37	53	NP	GRFYIQMCTELKLNDYE
128780	37	53	NP	GRFYIQMCTELKLNDYE
128798	169	185	NP	GSTLPRRSGAAGAAVKG
128798	169	185	NP	GSTLPRRSGAAGAAVKG
128817	187	203	NP	GTMVLELIRMIKRGIND
128817	187	203	NP	GTMVLELIRMIKRGIND
128824	300	316	NP	GVDPFKLLQTSQVYSLI
128824	300	316	NP	GVDPFKLLQTSQVYSLI
128825	462	478	NP	GVFELSDERATNPIVPS
128825	462	478	NP	GVFELSDERATNPIVPS
128838	288	304	NP	GYDFEKEGYSLVGVDPF
128838	288	304	NP	GYDFEKEGYSLVGVDPF
128861	324	340	NP	HKSQLVWMACNSAAFED
128861	324	340	NP	HKSQLVWMACNSAAFED
128893	217	233	NP	IAYERMCNILKGKFQTA
128893	217	233	NP	IAYERMCNILKGKFQTA
128933	444	460	NP	IIKMMESARPEEVSFQG
128933	444	460	NP	IIKMMESARPEEVSFQG
128981	25	41	NP	IRASVGRMIGGIGRFYI
128981	25	41	NP	IRASVGRMIGGIGRFYI
129067	229	245	NP	KFQTAAQKAMMDQVRES
129067	229	245	NP	KFQTAAQKAMMDQVRES
129149	7	23	NP	KRSYEQMETDGERQNAT
129149	7	23	NP	KRSYEQMETDGERQNAT
129166	91	107	NP	KTGGPIYKRVDGKWVRE
129166	91	107	NP	KTGGPIYKRVDGKWVRE
129184	103	119	NP	KWVRELVLYDKEEIRRI
129184	103	119	NP	KWVRELVLYDKEEIRRI
129219	79	95	NP	LEEHPSAGKDPKKTGGP
129219	79	95	NP	LEEHPSAGKDPKKTGGP
129242	264	280	NP	LILRGSVAHKSCLPACV
129242	264	280	NP	LILRGSVAHKSCLPACV
129248	193	209	NP	LIRMIKRGINDRNFWRG
129248	193	209	NP	LIRMIKRGINDRNFWRG
129271	306	322	NP	LLQTSQVYSLIRPNENP
129271	306	322	NP	LLQTSQVYSLIRPNENP
129283	49	65	NP	LNDYEGRLIQNSLTIER
129283	49	65	NP	LNDYEGRLIQNSLTIER
129288	276	292	NP	LPACVYGPAVASGYDFE
129288	276	292	NP	LPACVYGPAVASGYDFE
129339	133	149	NP	LTHIMIWHSNLNDTTYQ
129339	133	149	NP	LTHIMIWHSNLNDTTYQ
129340	61	77	NP	LTIERMVLSAFDERRNK
129340	61	77	NP	LTIERMVLSAFDERRNK
129370	426	442	NP	MAAFTGNTEGRTSDMRA
129370	426	442	NP	MAAFTGNTEGRTSDMRA
129372	1	17	NP	MASQGTKRSYEQMETDG
129372	1	17	NP	MASQGTKRSYEQMETDG
129374	163	179	NP	MCSLMQGSTLPRRSGAA
129374	163	179	NP	MCSLMQGSTLPRRSGAA
129375	43	59	NP	MCTELKLNDYEGRLIQN
129375	43	59	NP	MCTELKLNDYEGRLIQN
129389	13	29	NP	METDGERQNATEIRASV
129389	13	29	NP	METDGERQNATEIRASV
129469	205	221	NP	NFWRGENGRKTRIAYER
129469	205	221	NP	NFWRGENGRKTRIAYER
129474	211	227	NP	NGRKTRIAYERMCNILK
129474	211	227	NP	NGRKTRIAYERMCNILK
129527	432	448	NP	NTEGRTSDMRAEIIKMM
129527	432	448	NP	NTEGRTSDMRAEIIKMM
129590	474	490	NP	PIVPSFDMSNEGSYFFG
129590	474	490	NP	PIVPSFDMSNEGSYFFG
129614	318	334	NP	PNENPAHKSQLVWMACN
129614	318	334	NP	PNENPAHKSQLVWMACN
129649	354	370	NP	PRGKLSTRGVQIASNEN
129649	354	370	NP	PRGKLSTRGVQIASNEN
129740	199	215	NP	RGINDRNFWRGENGRKT
129740	199	215	NP	RGINDRNFWRGENGRKT
129752	348	364	NP	RGTRVLPRGKLSTRGVQ
129752	348	364	NP	RGTRVLPRGKLSTRGVQ
129779	55	71	NP	RLIQNSLTIERMVLSAF
129779	55	71	NP	RLIQNSLTIERMVLSAF
129786	31	47	NP	RMIGGIGRFYIQMCTEL
129786	31	47	NP	RMIGGIGRFYIQMCTEL
129798	246	262	NP	RNPGNAEIEDLTFLARS
129798	246	262	NP	RNPGNAEIEDLTFLARS
129806	121	137	NP	RQANNGDDATAGLTHIM
129806	121	137	NP	RQANNGDDATAGLTHIM
129811	19	35	NP	RQNATEIRASVGRMIGG
129811	19	35	NP	RQNATEIRASVGRMIGG
129827	175	191	NP	RSGAAGAAVKGVGTMVL
129827	175	191	NP	RSGAAGAAVKGVGTMVL
129853	342	358	NP	RVSSFIRGTRVLPRGKL
129853	342	358	NP	RVSSFIRGTRVLPRGKL
129855	384	400	NP	RYWAIRTRSGGNTNQQR
129855	384	400	NP	RYWAIRTRSGGNTNQQR
129861	402	418	NP	SAGQISTQPTFSVQRNL
129861	402	418	NP	SAGQISTQPTFSVQRNL
129865	450	466	NP	SARPEEVSFQGRGVFEL
129865	450	466	NP	SARPEEVSFQGRGVFEL
129873	438	454	NP	SDMRAEIIKMMESARPE
129873	438	454	NP	SDMRAEIIKMMESARPE
130035	486	498	NP	SYFFGDNAEEYDN
130035	486	498	NP	SYFFGDNAEEYDN
130075	157	173	NP	TGMDPRMCSLMQGSTLP
130075	157	173	NP	TGMDPRMCSLMQGSTLP
130100	378	394	NP	TLELRSRYWAIRTRSGG
130100	378	394	NP	TLELRSRYWAIRTRSGG
130114	396	412	NP	TNQQRASAGQISTQPTF
130114	396	412	NP	TNQQRASAGQISTQPTF
130135	408	424	NP	TQPTFSVQRNLPFDKTT
130135	408	424	NP	TQPTFSVQRNLPFDKTT
130136	151	167	NP	TRALVRTGMDPRMCSLM
130136	151	167	NP	TRALVRTGMDPRMCSLM
130140	360	376	NP	TRGVQIASNENMDAIVS
130140	360	376	NP	TRGVQIASNENMDAIVS
130141	390	406	NP	TRSGGNTNQQRASAGQI
130141	390	406	NP	TRSGGNTNQQRASAGQI
130180	270	286	NP	VAHKSCLPACVYGPAVA
130180	270	286	NP	VAHKSCLPACVYGPAVA
130258	67	83	NP	VLSAFDERRNKYLEEHP
130258	67	83	NP	VLSAFDERRNKYLEEHP
130261	109	125	NP	VLYDKEEIRRIWRQANN
130261	109	125	NP	VLYDKEEIRRIWRQANN
130278	414	430	NP	VQRNLPFDKTTIMAAFT
130278	414	430	NP	VQRNLPFDKTTIMAAFT
130294	456	472	NP	VSFQGRGVFELSDERAT
130294	456	472	NP	VSFQGRGVFELSDERAT
130321	312	328	NP	VYSLIRPNENPAHKSQL
130321	312	328	NP	VYSLIRPNENPAHKSQL
130329	139	155	NP	WHSNLNDTTYQRTRALV
130329	139	155	NP	WHSNLNDTTYQRTRALV
130335	330	346	NP	WMACNSAAFEDLRVSSF
130335	330	346	NP	WMACNSAAFEDLRVSSF
130375	97	113	NP	YKRVDGKWVRELVLYDK
130375	97	113	NP	YKRVDGKWVRELVLYDK